\relax 
\@writefile{toc}{\contentsline {chapter}{\numberline {3}Integration}{55}}
\@writefile{lof}{\addvspace {10\p@ }}
\@writefile{lot}{\addvspace {10\p@ }}
\@writefile{toc}{\contentsline {section}{\numberline {3.1}Definite and indefinite integrals}{55}}
\newlabel{fig:discrete-sum}{{a}{56}}
\newlabel{fig:integral-of-t}{{b}{56}}
\newlabel{fig:riemann}{{c}{57}}
\newlabel{eg:riemann}{{35}{57}}
\@writefile{toc}{\contentsline {section}{\numberline {3.2}The fundamental theorem of calculus}{58}}
\newlabel{eg:hyperbola}{{37}{58}}
\newlabel{fig:hyperbola-area}{{d}{59}}
\@writefile{toc}{\contentsline {section}{\numberline {3.3}Properties of the integral}{59}}
\@writefile{toc}{\contentsline {section}{\numberline {3.4}Applications}{60}}
\@writefile{toc}{\contentsline {subsection}{\numberline {3.4.1}Averages}{60}}
\newlabel{eg:mean-of-square}{{40}{60}}
\@writefile{toc}{\contentsline {subsection}{\numberline {3.4.2}Work}{61}}
\@writefile{toc}{\contentsline {subsection}{\numberline {3.4.3}Probability}{61}}
\newlabel{fig:globe}{{e}{61}}
\newlabel{fig:single-die}{{f}{62}}
\newlabel{fig:two-dice}{{g}{62}}
\newlabel{fig:human-height}{{h}{63}}
\newlabel{eg:random-diff}{{43}{63}}
\newlabel{sc:interpret-human-height}{{1}{64}}
\newlabel{fig:average}{{i}{64}}
\newlabel{fig:laser}{{j}{64}}
\newlabel{eg:laser}{{44}{64}}
\@writefile{toc}{\contentsline {section}{Problems}{67}}
\newlabel{hw:integrate-num}{{1}{67}}
\newlabel{hw:integrate-sin-cancel}{{2}{67}}
\newlabel{hw:estimate-then-integrate}{{3}{67}}
\newlabel{hw:average-sine}{{4}{67}}
\newlabel{hw:continuity-mean-value}{{5}{67}}
\newlabel{hw:fund-thm-assumption}{{6}{67}}
\newlabel{hw:piston}{{8}{67}}
\newlabel{fig:hw-piston}{{k}{68}}
\newlabel{fig:hw-holditch}{{l}{68}}
\newlabel{hw:holditch}{{11}{68}}
\@setckpt{ch03/ch03}{
\setcounter{page}{69}
\setcounter{equation}{0}
\setcounter{enumi}{0}
\setcounter{enumii}{0}
\setcounter{enumiii}{0}
\setcounter{enumiv}{0}
\setcounter{footnote}{0}
\setcounter{mpfootnote}{0}
\setcounter{part}{0}
\setcounter{chapter}{3}
\setcounter{section}{4}
\setcounter{subsection}{3}
\setcounter{subsubsection}{0}
\setcounter{paragraph}{0}
\setcounter{subparagraph}{0}
\setcounter{figure}{0}
\setcounter{table}{0}
\setcounter{FancyVerbLine}{11}
\setcounter{parentequation}{0}
\setcounter{hwctr}{11}
\setcounter{egctr}{46}
\setcounter{scctr}{1}
\setcounter{listingline}{1}
\setcounter{figctr}{12}
}
