\input fremtex
\input mt
\atUEssex

\def\copyrightdate#1{}

\def\vtmpb#1{}
\newif\iflargelogo
\def\discrpage{\vskip0pt plus\pageheight minus 0pt}
\def\frnewpage{}
\def\varfrnewpage{\vskip \pageheight plus 0pt minus\pageheight  
           \eject  
           \gdef\topparagraph{}  
           \gdef\bottomparagraph{}  
           \baselineskip=12pt}  
\def\leftfootline{}
\def\rightfootline{}
\def\query{\immediate\write0{query}\advance\nquery by 1}
\newcount\nquery
\nquery=0

\def\newsection#1{\wheader{\S#1 {\it intro.}}{24}{12}{2}{100pt}
   \vskip 0.1pt
   \noindent{\bf #1 \sectionname}
   \smallskip
   \let\headlinesectionname=\sectionname}
\def\newvolume#1{}

\newdimen\basiclineskip
\basiclineskip=12pt
\def\resetbaselineskip{\baselineskip=\basiclineskip}
\def\advancebaselineskip{\advance\baselineskip by 0.2pt}

\def\mtstyle{\noamslogo
  \firstpagefalse
  \resultsonlyfalse
  \magnification=\magstep0  
  \overfullrule0pt  
  \def\pagewidth{468pt}  
  \def\pageheight{9truein}  
  \hsize\pagewidth  
  \vsize\pageheight  
  \def\folio{\ifnum\pageno<5{}\else\number\pageno\fi} 
  \lhoffset=-1.2cm
  \rhoffset=-0.1cm
  \global\voffset=0.7cm
  \stylenumber=10}
\mtstyle

\hyphenation{Dede-kind}
\hyphenation{Ra-de-ma-cher}

\def\pagereference#1#2{\hfill\hbox{\ifresultsonly#2\qquad \hskip 1truein
                                                 \else#1\qquad \fi}}
\long\def\section#1#2#3#4#5#6{\ifresultsonly
    \hskip1truein\qquad #1 #2\pagereference{#4}{#5}
  \else\vskip 2pt plus 1pt minus 0pt
    \vbox{\qquad #1 #2\pagereference{#4}{#5}\par
    \abstr{#6}
    }\vskip -1pt plus 1pt minus 0pt
  \fi}
\long\def\chapintrosection#1#2#3{\ifresultsonly
    \hskip1truein\qquad Introduction\pagereference{#2}{#3}
  \else\vskip 1pt plus 1pt minus 0pt
    \qquad Introduction\pagereference{#2}{#3}
    \vskip 1pt plus 1pt minus 0pt
  \fi}
\def\abstr#1{\ifresultsonly{}
   \else{\advance\leftskip by\parindent
     \advance\rightskip by\parindent
     \advance\rightskip by\parindent
     {\advance\leftskip by\parindent
      \advance\rightskip by\parindent
     {\advance\leftskip by\parindent
     {\advance\leftskip by\parindent
     {\vskip1pt plus 0pt minus0pt
     \parindent=0pt
     \smallerfonts #1
     \vskip1pt plus 0pt minus0pt }}}}}\fi}
\Loadfourteens
