\relax 
\@input{ch00/cover.aux}
\@input{ch00/frontmatter.aux}
\@input{ch00/preface.aux}
\@writefile{toc}{\ttl@change@i {\@ne }{chapter}{0mm}{\addvspace {4mm}\sffamily }{\contentsmargin {0mm}\Large \thecontentslabel \enspace \Large }{\contentsmargin {0mm}\Large }{}\relax }
\@writefile{toc}{\ttl@change@v {chapter}{}{}{}\relax }
\@input{ch01/ch01.aux}
\@input{ch02/ch02.aux}
\@input{ch03/ch03.aux}
\@input{ch04/ch04.aux}
\@input{ch05/ch05.aux}
\@input{ch06/ch06.aux}
\@input{ch07/ch07.aux}
\@writefile{toc}{\ttl@change@i {\@ne }{chapter}{0mm}{\addvspace {4mm}\sffamily }{\contentsmargin {0mm}\large \thecontentslabel \enspace \large }{\contentsmargin {0mm}\large }{\quad \contentspage }\relax }
\@writefile{toc}{\ttl@change@v {chapter}{}{}{}\relax }
\@input{ch99/detours.aux}
\@input{ch99/hwans.aux}
\@input{ch99/photocredits.aux}
\@input{ch99/reference.aux}
\ttl@finishall
