\relax 
\@writefile{toc}{\contentsline {chapter}{\numberline {1}Rates of Change}{9}}
\@writefile{lof}{\addvspace {10\p@ }}
\@writefile{lot}{\addvspace {10\p@ }}
\@writefile{toc}{\contentsline {section}{\numberline {1.1}Change in discrete steps}{9}}
\newlabel{gauss-story}{{1.1}{9}}
\newlabel{fig:gauss-square}{{a}{9}}
\newlabel{fig:gauss-solution}{{b}{9}}
\@writefile{toc}{\contentsline {subsection}{\numberline {1.1.1}Two sides of the same coin}{9}}
\newlabel{fig:gauss}{{c}{10}}
\newlabel{fig:slope-interpretation}{{d}{10}}
\@writefile{toc}{\contentsline {subsection}{\numberline {1.1.2}Some guesses}{11}}
\@writefile{toc}{\contentsline {section}{\numberline {1.2}Continuous change}{12}}
\newlabel{fig:newton}{{e}{12}}
\newlabel{fig:nearly-continuous}{{f}{12}}
\newlabel{fig:tangent-line}{{g}{13}}
\newlabel{fig:not-a-tangent-line}{{h}{13}}
\@writefile{toc}{\contentsline {subsection}{\numberline {1.2.1}A derivative}{14}}
\newlabel{scaling}{{1.2.1}{14}}
\newlabel{fig:scaling}{{i}{14}}
\@writefile{toc}{\contentsline {subsection}{\numberline {1.2.2}Properties of the derivative}{15}}
\newlabel{eg:diff-quadratic}{{1}{15}}
\newlabel{pest}{{2}{15}}
\@writefile{toc}{\contentsline {subsection}{\numberline {1.2.3}Higher-order polynomials}{16}}
\@writefile{toc}{\contentsline {subsection}{\numberline {1.2.4}The second derivative}{16}}
\newlabel{fig:curvature}{{j}{17}}
\newlabel{fig:concavity}{{k}{17}}
\newlabel{fig:inflection}{{l}{18}}
\newlabel{inflection}{{1.2.4}{18}}
\@writefile{toc}{\contentsline {subsection}{\numberline {1.2.5}Maxima and minima}{18}}
\newlabel{fig:endpoint-min}{{m}{19}}
\newlabel{fig:kink-min}{{n}{19}}
\@writefile{toc}{\contentsline {section}{Problems}{21}}
\newlabel{hw:check-twot-graph}{{1}{21}}
\newlabel{hw:graph-sin-et}{{2}{21}}
\newlabel{hw:diff-monomials}{{3}{21}}
\newlabel{hw:diff-polynomial}{{4}{21}}
\newlabel{hw:diff-symbolic-const}{{5}{21}}
\newlabel{hw:same-deriv}{{6}{21}}
\newlabel{hw:integ-monomial}{{7}{21}}
\newlabel{hw:integ-monomial-const}{{8}{21}}
\newlabel{hw:integ-polynomial}{{9}{21}}
\newlabel{hw:observable-universe}{{10}{21}}
\newlabel{hw:ke}{{11}{21}}
\newlabel{hw:expanding-square}{{12}{21}}
\newlabel{hw:second-deriv}{{13}{22}}
\newlabel{hw:inflection}{{14}{22}}
\newlabel{hw:neg-power-graph}{{15}{22}}
\newlabel{hw:lennard-jones}{{16}{22}}
\newlabel{hw:prove-n-extrema}{{17}{22}}
\@setckpt{ch01/ch01}{
\setcounter{page}{23}
\setcounter{equation}{0}
\setcounter{enumi}{0}
\setcounter{enumii}{0}
\setcounter{enumiii}{0}
\setcounter{enumiv}{0}
\setcounter{footnote}{2}
\setcounter{mpfootnote}{0}
\setcounter{part}{0}
\setcounter{chapter}{1}
\setcounter{section}{2}
\setcounter{subsection}{5}
\setcounter{subsubsection}{0}
\setcounter{paragraph}{0}
\setcounter{subparagraph}{0}
\setcounter{figure}{0}
\setcounter{table}{0}
\setcounter{FancyVerbLine}{0}
\setcounter{parentequation}{0}
\setcounter{hwctr}{17}
\setcounter{egctr}{6}
\setcounter{scctr}{0}
\setcounter{listingline}{1}
\setcounter{figctr}{14}
}
