\relax 
\newlabel{fig:leibniz}{{a}{23}}
\@writefile{toc}{\contentsline {chapter}{\numberline {2}To infinity --- and beyond!}{23}}
\@writefile{lof}{\addvspace {10\p@ }}
\@writefile{lot}{\addvspace {10\p@ }}
\@writefile{toc}{\contentsline {section}{\numberline {2.1}Infinitesimals}{23}}
\newlabel{fig:close-up}{{b}{23}}
\newlabel{fig:t-squared-geometrically}{{c}{24}}
\newlabel{eg:third-power}{{7}{24}}
\newlabel{eg:derivative-of-sin}{{8}{25}}
\newlabel{fig:derivative-of-sine}{{d}{25}}
\newlabel{eg:dcos}{{9}{25}}
\newlabel{fig:berkeley}{{e}{26}}
\@writefile{toc}{\contentsline {section}{\numberline {2.2}Safe use of infinitesimals}{26}}
\newlabel{bogus-proof}{{2.2}{26}}
\newlabel{fig:robinson}{{f}{27}}
\newlabel{eg:halo}{{10}{29}}
\newlabel{transcendentals}{{2.2}{30}}
\@writefile{toc}{\contentsline {section}{\numberline {2.3}The product rule}{30}}
\newlabel{fig:product-rule}{{g}{31}}
\newlabel{eg:derivative-of-sqrt}{{12}{33}}
\newlabel{coy-der-x-to-neg-k}{{2.3}{33}}
\@writefile{toc}{\contentsline {section}{\numberline {2.4}The chain rule}{33}}
\newlabel{sec:chain-rule}{{2.4}{33}}
\newlabel{fig:clowns}{{h}{34}}
\@writefile{toc}{\contentsline {section}{\numberline {2.5}Exponentials and logarithms}{34}}
\@writefile{toc}{\contentsline {subsection}{\numberline {2.5.1}The exponential}{34}}
\newlabel{main:exp}{{2.5.1}{34}}
\newlabel{eg:caffeine}{{14}{35}}
\newlabel{fig:caffeine}{{i}{35}}
\@writefile{toc}{\contentsline {subsection}{\numberline {2.5.2}The logarithm}{36}}
\newlabel{eg:der-x-to-any-k}{{16}{36}}
\newlabel{fig:power-ladder}{{j}{37}}
\newlabel{log-neg}{{2.5.2}{37}}
\@writefile{toc}{\contentsline {section}{\numberline {2.6}Quotients}{37}}
\@writefile{toc}{\contentsline {section}{\numberline {2.7}Differentiation on a computer}{38}}
\newlabel{eg:derivative-limit}{{23}{40}}
\@writefile{toc}{\contentsline {section}{\numberline {2.8}Continuity}{41}}
\@writefile{toc}{\contentsline {section}{\numberline {2.9}Limits}{42}}
\newlabel{sec:limits}{{2.9}{42}}
\newlabel{eg:no-limit}{{27}{43}}
\newlabel{fig:no-limit}{{k}{44}}
\newlabel{fig:limit-two-sides}{{l}{44}}
\newlabel{eg:limit-two-sides}{{28}{44}}
\@writefile{toc}{\contentsline {subsection}{\numberline {2.9.1}L'H\^{o}pital's rule}{45}}
\newlabel{fig:sin-x-over-x}{{m}{45}}
\@writefile{toc}{\contentsline {subsection}{\numberline {2.9.2}Another perspective on indeterminate forms}{47}}
\@writefile{toc}{\contentsline {subsection}{\numberline {2.9.3}Limits at infinity}{48}}
\@writefile{toc}{\contentsline {section}{Problems}{50}}
\newlabel{hw:fourth-power}{{1}{50}}
\newlabel{hw:derivative-of-cos}{{2}{50}}
\newlabel{hw:infinite-subtraction}{{3}{50}}
\newlabel{hw:infinitesimal-sqrt}{{4}{50}}
\newlabel{hw:transfer}{{5}{50}}
\newlabel{hw:hundredth}{{8}{51}}
\newlabel{hw:one-and-two-hundred}{{9}{51}}
\newlabel{hw:ex-chain}{{10}{51}}
\newlabel{hw:sinusoidal}{{11}{51}}
\newlabel{hw:integrate-sinusoidal}{{12}{51}}
\newlabel{hw:max-range}{{13}{51}}
\newlabel{hw:cosh}{{14}{51}}
\newlabel{hw:air-res-v}{{15}{51}}
\newlabel{hw:derivative-of-tan}{{16}{52}}
\newlabel{hw:cube-root}{{17}{52}}
\newlabel{hw:thompson-sqrts}{{18}{52}}
\newlabel{hw:logarithmy}{{19}{52}}
\newlabel{hw:unnecessary-prod}{{20}{52}}
\newlabel{hw:gamma}{{21}{52}}
\newlabel{hw:cylinder}{{22}{52}}
\newlabel{hw:relativistic-ke}{{23}{52}}
\newlabel{hw:log-neg}{{24}{53}}
\newlabel{hw:neg-power-trick}{{25}{53}}
\newlabel{hw:limit-of-sum}{{27}{53}}
\@setckpt{ch02/ch02}{
\setcounter{page}{54}
\setcounter{equation}{0}
\setcounter{enumi}{0}
\setcounter{enumii}{0}
\setcounter{enumiii}{0}
\setcounter{enumiv}{0}
\setcounter{footnote}{8}
\setcounter{mpfootnote}{0}
\setcounter{part}{0}
\setcounter{chapter}{2}
\setcounter{section}{9}
\setcounter{subsection}{3}
\setcounter{subsubsection}{0}
\setcounter{paragraph}{0}
\setcounter{subparagraph}{0}
\setcounter{figure}{0}
\setcounter{table}{0}
\setcounter{FancyVerbLine}{4}
\setcounter{parentequation}{0}
\setcounter{hwctr}{29}
\setcounter{egctr}{33}
\setcounter{scctr}{0}
\setcounter{listingline}{10}
\setcounter{figctr}{13}
}
