\relax 
\@writefile{toc}{\contentsline {chapter}{\numberline {7}Iterated integrals}{97}}
\@writefile{lof}{\addvspace {10\p@ }}
\@writefile{lot}{\addvspace {10\p@ }}
\newlabel{ch:iterated-int}{{7}{97}}
\@writefile{toc}{\contentsline {section}{\numberline {7.1}Integrals inside integrals}{97}}
\@writefile{toc}{\contentsline {section}{\numberline {7.2}Applications}{99}}
\newlabel{fig:blondin}{{a}{99}}
\@writefile{toc}{\contentsline {section}{\numberline {7.3}Polar coordinates}{101}}
\newlabel{fig:descartes}{{b}{101}}
\newlabel{fig:polar-coordinates}{{c}{101}}
\newlabel{fig:da-polar}{{d}{101}}
\@writefile{toc}{\contentsline {section}{\numberline {7.4}Spherical and cylindrical coordinates}{102}}
\newlabel{fig:cylindrical-coordinates}{{e}{102}}
\newlabel{fig:spherical-coordinates}{{f}{103}}
\@writefile{toc}{\contentsline {section}{Problems}{104}}
\newlabel{hw:snail}{{1}{104}}
\newlabel{fig:hw-snail}{{g}{104}}
\newlabel{hw:nuclear-shape}{{6}{104}}
\@setckpt{ch07/ch07}{
\setcounter{page}{106}
\setcounter{equation}{0}
\setcounter{enumi}{0}
\setcounter{enumii}{0}
\setcounter{enumiii}{0}
\setcounter{enumiv}{0}
\setcounter{footnote}{0}
\setcounter{mpfootnote}{0}
\setcounter{part}{0}
\setcounter{chapter}{7}
\setcounter{section}{4}
\setcounter{subsection}{0}
\setcounter{subsubsection}{0}
\setcounter{paragraph}{0}
\setcounter{subparagraph}{0}
\setcounter{figure}{0}
\setcounter{table}{0}
\setcounter{FancyVerbLine}{5}
\setcounter{parentequation}{0}
\setcounter{hwctr}{7}
\setcounter{egctr}{73}
\setcounter{scctr}{0}
\setcounter{listingline}{1}
\setcounter{figctr}{7}
}
