\relax 
\@writefile{toc}{\contentsline {chapter}{\numberline {5}Complex number techniques}{85}}
\@writefile{lof}{\addvspace {10\p@ }}
\@writefile{lot}{\addvspace {10\p@ }}
\@writefile{toc}{\contentsline {section}{\numberline {5.1}Review of complex numbers}{85}}
\newlabel{fig:complex-numbers}{{a}{85}}
\newlabel{fig:complex-addition}{{b}{85}}
\newlabel{fig:complex-conjugate}{{c}{86}}
\newlabel{eg:sqrt-i}{{58}{86}}
\newlabel{sc:complex-square-root}{{1}{86}}
\newlabel{fig:complex-polar}{{d}{87}}
\newlabel{fig:complex-multiplication}{{e}{87}}
\@writefile{toc}{\contentsline {section}{\numberline {5.2}Euler's formula}{88}}
\newlabel{fig:euler}{{f}{88}}
\newlabel{fig:euler-portrait}{{g}{89}}
\@writefile{toc}{\contentsline {section}{\numberline {5.3}Partial fractions revisited}{90}}
\newlabel{sec:complex-part-frac}{{5.3}{90}}
\@writefile{toc}{\contentsline {section}{Problems}{91}}
\@setckpt{ch05/ch05}{
\setcounter{page}{92}
\setcounter{equation}{0}
\setcounter{enumi}{0}
\setcounter{enumii}{0}
\setcounter{enumiii}{0}
\setcounter{enumiv}{0}
\setcounter{footnote}{3}
\setcounter{mpfootnote}{0}
\setcounter{part}{0}
\setcounter{chapter}{5}
\setcounter{section}{3}
\setcounter{subsection}{0}
\setcounter{subsubsection}{0}
\setcounter{paragraph}{0}
\setcounter{subparagraph}{0}
\setcounter{figure}{0}
\setcounter{table}{0}
\setcounter{FancyVerbLine}{5}
\setcounter{parentequation}{0}
\setcounter{hwctr}{8}
\setcounter{egctr}{61}
\setcounter{scctr}{1}
\setcounter{listingline}{1}
\setcounter{figctr}{7}
}
