\relax 
\@writefile{toc}{\contentsline {chapter}{\numberline {6}Improper integrals}{93}}
\@writefile{lof}{\addvspace {10\p@ }}
\@writefile{lot}{\addvspace {10\p@ }}
\@writefile{toc}{\contentsline {section}{\numberline {6.1}Integrating a function that blows up}{93}}
\newlabel{eg:improper-a}{{62}{93}}
\newlabel{fig:improper-a}{{a}{93}}
\newlabel{fig:improper-b}{{b}{94}}
\@writefile{toc}{\contentsline {section}{\numberline {6.2}Limits of integration at infinity}{94}}
\newlabel{fig:improper-c}{{c}{94}}
\@writefile{toc}{\contentsline {section}{Problems}{96}}
\newlabel{hw:laser}{{6}{96}}
\@setckpt{ch06/ch06}{
\setcounter{page}{97}
\setcounter{equation}{0}
\setcounter{enumi}{0}
\setcounter{enumii}{0}
\setcounter{enumiii}{0}
\setcounter{enumiv}{0}
\setcounter{footnote}{0}
\setcounter{mpfootnote}{0}
\setcounter{part}{0}
\setcounter{chapter}{6}
\setcounter{section}{2}
\setcounter{subsection}{0}
\setcounter{subsubsection}{0}
\setcounter{paragraph}{0}
\setcounter{subparagraph}{0}
\setcounter{figure}{0}
\setcounter{table}{0}
\setcounter{FancyVerbLine}{5}
\setcounter{parentequation}{0}
\setcounter{hwctr}{7}
\setcounter{egctr}{65}
\setcounter{scctr}{0}
\setcounter{listingline}{1}
\setcounter{figctr}{3}
}
