\relax 
\@writefile{toc}{\contentsline {chapter}{\numberline {A}Detours}{107}}
\@writefile{lof}{\addvspace {10\p@ }}
\@writefile{lot}{\addvspace {10\p@ }}
\newlabel{detour:def-tangent}{{A}{107}}
\newlabel{detour:polynomial-proof}{{A}{107}}
\newlabel{detour:sin-rigor}{{A}{108}}
\newlabel{fig:sin-rigor}{{a}{108}}
\newlabel{detour:transcendentals}{{A}{109}}
\newlabel{detour:chain-rule}{{A}{110}}
\newlabel{detour:exp}{{A}{110}}
\newlabel{definition-of-exp}{{A}{111}}
\newlabel{detour:fundamental-thm-proof}{{A}{111}}
\newlabel{detour:mean-value-proof}{{A}{112}}
\newlabel{detour:fn-thm-alg-proof}{{A}{112}}
\@setckpt{ch99/detours}{
\setcounter{page}{114}
\setcounter{equation}{0}
\setcounter{enumi}{0}
\setcounter{enumii}{0}
\setcounter{enumiii}{0}
\setcounter{enumiv}{0}
\setcounter{footnote}{3}
\setcounter{mpfootnote}{0}
\setcounter{part}{0}
\setcounter{chapter}{1}
\setcounter{section}{0}
\setcounter{subsection}{0}
\setcounter{subsubsection}{0}
\setcounter{paragraph}{0}
\setcounter{subparagraph}{0}
\setcounter{figure}{0}
\setcounter{table}{0}
\setcounter{FancyVerbLine}{5}
\setcounter{parentequation}{0}
\setcounter{hwctr}{0}
\setcounter{egctr}{73}
\setcounter{scctr}{0}
\setcounter{listingline}{1}
\setcounter{figctr}{1}
}
