\relax 
\@writefile{toc}{\contentsline {chapter}{\numberline {B}Answers and solutions}{115}}
\@writefile{lof}{\addvspace {10\p@ }}
\@writefile{lot}{\addvspace {10\p@ }}
\newlabel{scans:interpret-human-height}{{B}{115}}
\newlabel{scans:complex-square-root}{{B}{115}}
\newlabel{soln:check-twot-graph}{{B}{116}}
\newlabel{fig:soln-check-twot-graph}{{a}{116}}
\newlabel{soln:graph-sin-et}{{B}{116}}
\newlabel{fig:soln-graph-sin-et}{{b}{116}}
\newlabel{soln:diff-monomials}{{B}{117}}
\newlabel{soln:diff-polynomial}{{B}{117}}
\newlabel{soln:diff-symbolic-const}{{B}{117}}
\newlabel{soln:same-deriv}{{B}{117}}
\newlabel{soln:integ-monomial}{{B}{117}}
\newlabel{soln:integ-monomial-const}{{B}{117}}
\newlabel{soln:integ-polynomial}{{B}{118}}
\newlabel{soln:observable-universe}{{B}{118}}
\newlabel{soln:ke}{{B}{118}}
\newlabel{soln:expanding-square}{{B}{118}}
\newlabel{soln:second-deriv}{{B}{119}}
\newlabel{soln:inflection}{{B}{119}}
\newlabel{fig:soln-inflection}{{c}{119}}
\newlabel{soln:neg-power-graph}{{B}{119}}
\newlabel{fig:soln-neg-power-graph}{{d}{120}}
\newlabel{soln:limit-of-sum}{{B}{120}}
\newlabel{soln:lennard-jones}{{B}{121}}
\newlabel{fig:soln-lennard-jones}{{e}{122}}
\newlabel{soln:prove-n-extrema}{{B}{122}}
\newlabel{soln:fourth-power}{{B}{122}}
\newlabel{soln:derivative-of-cos}{{B}{122}}
\newlabel{soln:infinite-subtraction}{{B}{123}}
\newlabel{soln:infinitesimal-sqrt}{{B}{123}}
\newlabel{soln:transfer}{{B}{123}}
\newlabel{soln:hundredth}{{B}{124}}
\newlabel{soln:one-and-two-hundred}{{B}{124}}
\newlabel{soln:ex-chain}{{B}{124}}
\newlabel{soln:sinusoidal}{{B}{124}}
\newlabel{soln:integrate-sinusoidal}{{B}{124}}
\newlabel{soln:max-range}{{B}{125}}
\newlabel{soln:cosh}{{B}{125}}
\newlabel{soln:air-res-v}{{B}{125}}
\newlabel{soln:derivative-of-tan}{{B}{126}}
\newlabel{soln:cube-root}{{B}{126}}
\newlabel{soln:thompson-sqrts}{{B}{126}}
\newlabel{soln:logarithmy}{{B}{126}}
\newlabel{soln:unnecessary-prod}{{B}{127}}
\newlabel{soln:gamma}{{B}{127}}
\newlabel{soln:cylinder}{{B}{127}}
\newlabel{soln:relativistic-ke}{{B}{128}}
\newlabel{soln:log-neg}{{B}{128}}
\newlabel{soln:neg-power-trick}{{B}{129}}
\newlabel{soln:integrate-num}{{B}{129}}
\newlabel{soln:integrate-sin-cancel}{{B}{129}}
\newlabel{fig:soln-integrate-sin-cancel}{{f}{130}}
\newlabel{soln:estimate-then-integrate}{{B}{130}}
\newlabel{fig:soln-estimate-then-integrate}{{g}{130}}
\newlabel{soln:average-sine}{{B}{131}}
\newlabel{soln:continuity-mean-value}{{B}{131}}
\newlabel{soln:fund-thm-assumption}{{B}{131}}
\@setckpt{ch99/hwans}{
\setcounter{page}{132}
\setcounter{equation}{0}
\setcounter{enumi}{0}
\setcounter{enumii}{0}
\setcounter{enumiii}{0}
\setcounter{enumiv}{0}
\setcounter{footnote}{0}
\setcounter{mpfootnote}{0}
\setcounter{part}{0}
\setcounter{chapter}{2}
\setcounter{section}{0}
\setcounter{subsection}{0}
\setcounter{subsubsection}{0}
\setcounter{paragraph}{0}
\setcounter{subparagraph}{0}
\setcounter{figure}{0}
\setcounter{table}{0}
\setcounter{FancyVerbLine}{11}
\setcounter{parentequation}{0}
\setcounter{hwctr}{0}
\setcounter{egctr}{73}
\setcounter{scctr}{0}
\setcounter{listingline}{1}
\setcounter{figctr}{7}
}
