\relax 
\@writefile{toc}{\contentsline {chapter}{\numberline {C}Photo Credits}{133}}
\@writefile{lof}{\addvspace {10\p@ }}
\@writefile{lot}{\addvspace {10\p@ }}
\@setckpt{ch99/photocredits}{
\setcounter{page}{134}
\setcounter{equation}{0}
\setcounter{enumi}{0}
\setcounter{enumii}{0}
\setcounter{enumiii}{0}
\setcounter{enumiv}{0}
\setcounter{footnote}{0}
\setcounter{mpfootnote}{0}
\setcounter{part}{0}
\setcounter{chapter}{3}
\setcounter{section}{0}
\setcounter{subsection}{0}
\setcounter{subsubsection}{0}
\setcounter{paragraph}{0}
\setcounter{subparagraph}{0}
\setcounter{figure}{0}
\setcounter{table}{0}
\setcounter{FancyVerbLine}{11}
\setcounter{parentequation}{0}
\setcounter{hwctr}{0}
\setcounter{egctr}{73}
\setcounter{scctr}{0}
\setcounter{listingline}{1}
\setcounter{figctr}{0}
}
