\relax 
\@writefile{toc}{\contentsline {chapter}{\numberline {D}Reference}{135}}
\@writefile{lof}{\addvspace {10\p@ }}
\@writefile{lot}{\addvspace {10\p@ }}
\@writefile{toc}{\contentsline {section}{\numberline {D.1}Review}{135}}
\@writefile{toc}{\contentsline {subsection}{\numberline {D.1.1}Algebra}{135}}
\@writefile{toc}{\contentsline {subsection}{\numberline {D.1.2}Geometry, area, and volume}{135}}
\@writefile{toc}{\contentsline {subsection}{\numberline {D.1.3}Trigonometry with a right triangle}{135}}
\@writefile{toc}{\contentsline {subsection}{\numberline {D.1.4}Trigonometry with any triangle}{135}}
\@writefile{toc}{\contentsline {section}{\numberline {D.2}Hyperbolic functions}{135}}
\@writefile{toc}{\contentsline {section}{\numberline {D.3}Calculus}{136}}
\@writefile{toc}{\contentsline {subsection}{\numberline {D.3.1}Rules for differentiation}{136}}
\@writefile{toc}{\contentsline {subsection}{\numberline {D.3.2}Integral calculus}{136}}
\@writefile{toc}{\contentsline {subsection}{\numberline {D.3.3}Table of integrals}{136}}
\@setckpt{ch99/reference}{
\setcounter{page}{137}
\setcounter{equation}{0}
\setcounter{enumi}{0}
\setcounter{enumii}{0}
\setcounter{enumiii}{0}
\setcounter{enumiv}{0}
\setcounter{footnote}{0}
\setcounter{mpfootnote}{0}
\setcounter{part}{0}
\setcounter{chapter}{4}
\setcounter{section}{3}
\setcounter{subsection}{3}
\setcounter{subsubsection}{0}
\setcounter{paragraph}{0}
\setcounter{subparagraph}{0}
\setcounter{figure}{0}
\setcounter{table}{0}
\setcounter{FancyVerbLine}{11}
\setcounter{parentequation}{0}
\setcounter{hwctr}{0}
\setcounter{egctr}{73}
\setcounter{scctr}{0}
\setcounter{listingline}{1}
\setcounter{figctr}{0}
}
