\relax 
\@writefile{toc}{\contentsline {chapter}{\numberline {4}Techniques}{69}}
\@writefile{lof}{\addvspace {10\p@ }}
\@writefile{lot}{\addvspace {10\p@ }}
\@writefile{toc}{\contentsline {section}{\numberline {4.1}Newton's method}{69}}
\newlabel{eg:keplerian}{{47}{69}}
\newlabel{fig:keplerian}{{a}{70}}
\@writefile{toc}{\contentsline {section}{\numberline {4.2}Implicit differentiation}{70}}
\@writefile{toc}{\contentsline {section}{\numberline {4.3}Taylor series}{71}}
\newlabel{fig:ex-tangent}{{b}{71}}
\newlabel{fig:ex-quadratic}{{c}{72}}
\newlabel{fig:ex-cubic}{{d}{72}}
\newlabel{fig:ex-cubic-wide}{{e}{73}}
\newlabel{fig:nonanalytic}{{f}{74}}
\@writefile{toc}{\contentsline {section}{\numberline {4.4}Methods of integration}{76}}
\@writefile{toc}{\contentsline {subsection}{\numberline {4.4.1}Change of variable}{76}}
\newlabel{eg:not-so-tricky}{{52}{76}}
\newlabel{eg:arctan}{{53}{76}}
\newlabel{fig:tan-substitution}{{g}{77}}
\newlabel{fig:cos-substitution}{{h}{77}}
\@writefile{toc}{\contentsline {subsection}{\numberline {4.4.2}Integration by parts}{78}}
\newlabel{fig:by-parts}{{i}{78}}
\@writefile{toc}{\contentsline {subsection}{\numberline {4.4.3}Partial fractions}{79}}
\@writefile{toc}{\contentsline {section}{Problems}{83}}
\newlabel{hw:air-res-taylor}{{4}{83}}
\@setckpt{ch04/ch04}{
\setcounter{page}{85}
\setcounter{equation}{0}
\setcounter{enumi}{0}
\setcounter{enumii}{0}
\setcounter{enumiii}{0}
\setcounter{enumiv}{0}
\setcounter{footnote}{2}
\setcounter{mpfootnote}{0}
\setcounter{part}{0}
\setcounter{chapter}{4}
\setcounter{section}{4}
\setcounter{subsection}{3}
\setcounter{subsubsection}{0}
\setcounter{paragraph}{0}
\setcounter{subparagraph}{0}
\setcounter{figure}{0}
\setcounter{table}{0}
\setcounter{FancyVerbLine}{5}
\setcounter{parentequation}{0}
\setcounter{hwctr}{14}
\setcounter{egctr}{57}
\setcounter{scctr}{0}
\setcounter{listingline}{1}
\setcounter{figctr}{9}
}
